<svg xmlns="http://www.w3.org/2000/svg" xmlns:xlink="http://www.w3.org/1999/xlink" width="67" height="56" viewBox="0 0 67 56">
    <defs>
        <path id="prefix__a" d="M0 0.366L28.634 0.366 28.634 26.686 0 26.686z"/>
        <path id="prefix__c" d="M19.075 0.296L10.117 2.95 0.365 28.265 22.962 44 31.92 41.346"/>
        <path id="prefix__e" d="M19.075 0.296L10.117 2.95 0.365 28.265 22.962 44 31.92 41.346"/>
    </defs>
    <g fill="none" fill-rule="evenodd">
        <g>
            <path fill="#08449B" d="M35.846 23.118c-.793-2.638.676-5.428 3.281-6.23 2.606-.803 5.361.684 6.154 3.322.793 2.637-.676 5.426-3.282 6.23-2.605.803-5.36-.685-6.153-3.322M24.274 53c-.9 0-1.802-.344-2.495-1.033L9.743 39.998c-1.403-1.395-1.423-3.677-.046-5.097 1.379-1.42 3.633-1.44 5.035-.046l12.036 11.97c1.403 1.395 1.423 3.676.045 5.096-.697.719-1.618 1.079-2.54 1.079" transform="translate(0 -4) translate(0 7)"/>
            <path fill="#F3D21A" d="M48.609 42.092L28.634 37.035 22.197 15.63 36.001 0.161z" transform="translate(0 -4) translate(0 7)"/>
            <g transform="translate(0 -4) translate(0 7) translate(0 15.264)">
                <mask id="prefix__b" fill="#fff">
                    <use xlink:href="#prefix__a"/>
                </mask>
                <path fill="#08449B" d="M14.272 26.198l14.362-4.426L22.196.366 7.836 4.792c-5.84 1.8-9.131 8.05-7.354 13.96 1.777 5.912 7.952 9.245 13.79 7.446" mask="url(#prefix__b)"/>
            </g>
        </g>
        <g transform="translate(0 -4) translate(40)">
            <mask id="prefix__d" fill="#fff">
                <use xlink:href="#prefix__c"/>
            </mask>
            <path fill="#08449B" d="M-7.708 30.656c.657 2.098 2.114 3.822 4.103 4.853 1.988 1.032 4.27 1.25 6.428.61 4.451-1.319 6.97-5.914 5.615-10.245-.656-2.098-2.113-3.821-4.102-4.853-1.988-1.032-4.271-1.249-6.428-.61-4.452 1.319-6.97 5.914-5.616 10.245M.345 43.54c-2.54 0-5.058-.607-7.363-1.803-3.699-1.919-6.408-5.123-7.629-9.025-1.22-3.9-.806-8.03 1.166-11.629 1.972-3.598 5.267-6.234 9.276-7.421 4.01-1.188 8.256-.785 11.954 1.133 3.699 1.919 6.407 5.124 7.628 9.025 2.52 8.053-2.164 16.6-10.442 19.05-1.51.448-3.054.67-4.59.67" mask="url(#prefix__d)"/>
            <g>
                <mask id="prefix__f" fill="#fff">
                    <use xlink:href="#prefix__e"/>
                </mask>
                <path fill="#08449B" d="M.354 9.813c-1.824 0-3.678.258-5.512.802-4.846 1.435-8.827 4.62-11.21 8.969-2.385 4.349-2.885 9.34-1.41 14.054 1.476 4.715 4.75 8.589 9.22 10.908 4.47 2.318 9.6 2.804 14.446 1.37 4.846-1.435 8.828-4.62 11.211-8.97 2.384-4.348 2.884-9.34 1.409-14.054C16.02 14.944 8.483 9.813.354 9.813M.331 53.784c-4.244 0-8.45-1.014-12.302-3.012-6.18-3.206-10.706-8.56-12.746-15.078-2.039-6.518-1.347-13.419 1.948-19.43 3.295-6.012 8.799-10.416 15.498-12.4C6.56-.233 21.236 7.382 25.447 20.837c2.04 6.518 1.348 13.418-1.947 19.43-3.296 6.012-8.8 10.415-15.5 12.4-2.523.747-5.103 1.117-7.669 1.117" mask="url(#prefix__f)"/>
            </g>
        </g>
    </g>
</svg>
