<svg xmlns="http://www.w3.org/2000/svg" width="19" height="19" viewBox="0 0 19 19">
    <path fill="#FFF" fill-rule="evenodd" d="M9.528 1L2 8.527 4.122 10.648 8.028 6.742 8.028 17.746 11.027 17.746 11.027 6.742 14.933 10.648 17.054 8.527z" transform="matrix(0 -1 -1 0 18.9 18.9)"/>
</svg>
