<svg xmlns="http://www.w3.org/2000/svg" width="209" height="121" viewBox="0 0 209 121">
    <path fill="#F5F9FC" fill-rule="evenodd" d="M200.242 0H8.758C3.921 0 0 3.918 0 8.752v82.353c0 4.833 3.921 8.751 8.758 8.751h27.777V121L61.25 99.856h138.992c4.837 0 8.758-3.918 8.758-8.751V8.752C209 3.918 205.08 0 200.242 0"/>
</svg>
