<?xml version="1.0" encoding="utf-8"?>
<!-- Generator: Adobe Illustrator 22.0.1, SVG Export Plug-In . SVG Version: 6.00 Build 0)  -->
<svg version="1.1" id="Calque_1" xmlns="http://www.w3.org/2000/svg" xmlns:xlink="http://www.w3.org/1999/xlink" x="0px" y="0px"
	 viewBox="0 0 246.5 209.1" style="enable-background:new 0 0 246.5 209.1;" xml:space="preserve">
<style type="text/css">
	.st0{fill:#FAFBFC;}
	.st1{fill:none;stroke:#FAFBFC;stroke-width:2.0408;stroke-miterlimit:10;}
	.st2{fill:#FFFFFF;}
</style>
<circle class="st0" cx="129.5" cy="990.1" r="11.7"/>
<circle class="st1" cx="166.7" cy="990.1" r="11.7"/>
<circle class="st1" cx="204.9" cy="990.1" r="11.7"/>
<g>
	<g>
		<path class="st2" d="M114.8,115c0-0.9-0.8-1.7-1.7-1.7h-5.9c-0.9,0-1.7,0.8-1.7,1.7v5.9c0,0.9,0.8,1.7,1.7,1.7h5.9
			c0.9,0,1.7-0.8,1.7-1.7V115L114.8,115z"/>
		<path class="st2" d="M129.6,115c0-0.9-0.8-1.7-1.7-1.7H122c-0.9,0-1.7,0.8-1.7,1.7v5.9c0,0.9,0.8,1.7,1.7,1.7h5.9
			c0.9,0,1.7-0.8,1.7-1.7V115z"/>
		<path class="st2" d="M144.3,115c0-0.9-0.8-1.7-1.7-1.7h-5.9c-0.9,0-1.7,0.8-1.7,1.7v5.9c0,0.9,0.8,1.7,1.7,1.7h5.9
			c0.9,0,1.7-0.8,1.7-1.7V115z"/>
		<path class="st2" d="M114.8,129.7c0-0.9-0.8-1.7-1.7-1.7h-5.9c-0.9,0-1.7,0.8-1.7,1.7v5.9c0,0.9,0.8,1.7,1.7,1.7h5.9
			c0.9,0,1.7-0.8,1.7-1.7V129.7L114.8,129.7z"/>
		<path class="st2" d="M129.6,129.7c0-0.9-0.8-1.7-1.7-1.7H122c-0.9,0-1.7,0.8-1.7,1.7v5.9c0,0.9,0.8,1.7,1.7,1.7h5.9
			c0.9,0,1.7-0.8,1.7-1.7V129.7z"/>
		<path class="st2" d="M144.3,129.7c0-0.9-0.8-1.7-1.7-1.7h-5.9c-0.9,0-1.7,0.8-1.7,1.7v5.9c0,0.9,0.8,1.7,1.7,1.7h5.9
			c0.9,0,1.7-0.8,1.7-1.7V129.7L144.3,129.7z"/>
		<path class="st2" d="M154.8,82.3v9c0,4.1-3.3,7.3-7.4,7.3h-4.6c-4.1,0-7.4-3.3-7.4-7.3v-9h-20.9v9c0,4.1-3.3,7.3-7.4,7.3h-4.6
			c-4.1,0-7.4-3.3-7.4-7.3v-9c-3.6,0.1-6.5,3-6.5,6.7v52.7c0,3.7,3,6.7,6.7,6.7h59.4c3.7,0,6.7-3,6.7-6.7V88.9
			C161.3,85.3,158.4,82.4,154.8,82.3z M152.7,138.4c0,1.6-1.3,2.9-2.9,2.9H99.9c-1.6,0-2.9-1.3-2.9-2.9v-27.2c0-1.6,1.3-2.9,2.9-2.9
			h49.8c1.6,0,2.9,1.3,2.9,2.9L152.7,138.4L152.7,138.4z"/>
		<path class="st2" d="M102.4,93.8h4.6c1.4,0,2.5-1.1,2.5-2.5V76.5c0-1.4-1.1-2.5-2.5-2.5h-4.6c-1.4,0-2.5,1.1-2.5,2.5v14.8
			C99.9,92.6,101,93.8,102.4,93.8z"/>
		<path class="st2" d="M142.8,93.8h4.6c1.4,0,2.5-1.1,2.5-2.5V76.5c0-1.4-1.1-2.5-2.5-2.5h-4.6c-1.4,0-2.5,1.1-2.5,2.5v14.8
			C140.2,92.6,141.4,93.8,142.8,93.8z"/>
	</g>
</g>
</svg>
