<?xml version="1.0" encoding="utf-8"?>
<!-- Generator: Adobe Illustrator 23.0.4, SVG Export Plug-In . SVG Version: 6.00 Build 0)  -->
<svg version="1.1" id="Calque_1" xmlns="http://www.w3.org/2000/svg" xmlns:xlink="http://www.w3.org/1999/xlink" x="0px" y="0px"
	 viewBox="0 0 60 68" style="enable-background:new 0 0 60 68;" xml:space="preserve">
<style type="text/css">
	.st0{fill:#4EAF47;}
	.st1{fill:#FFFFFF;}
</style>
<polygon class="st0" points="59,50.8 59,17.2 30,0.5 1,17.2 1,50.8 30,67.5 "/>
<path class="st1" d="M42.2,23.7c0.3,0,0.6,0.1,0.8,0.3s0.3,0.5,0.3,0.8v15.3c0,0.7-0.2,1.2-0.7,1.7c-0.5,0.5-1,0.7-1.7,0.7H17.9
	c-0.8,0-1.4-0.3-1.9-0.8c-0.5-0.5-0.8-1.2-0.8-1.9V26.4c0-0.3,0.1-0.6,0.3-0.8s0.5-0.3,0.8-0.3h2v-0.4c0-0.3,0.1-0.6,0.3-0.8
	s0.5-0.3,0.8-0.3H42.2z M17.9,40.1c0.1,0,0.2,0,0.3-0.1c0.1-0.1,0.1-0.2,0.1-0.3V27.6h-0.8v12.1c0,0.1,0,0.2,0.1,0.3
	C17.7,40.1,17.8,40.1,17.9,40.1z M39.7,29.9c0.2,0,0.3-0.1,0.4-0.2s0.2-0.3,0.2-0.4v-2c0-0.2-0.1-0.3-0.2-0.4s-0.3-0.2-0.4-0.2H22
	c-0.2,0-0.3,0.1-0.4,0.2s-0.2,0.3-0.2,0.4v2c0,0.2,0.1,0.3,0.2,0.4s0.3,0.2,0.4,0.2H39.7z M29.5,34.6c0.2,0,0.3-0.1,0.4-0.2
	s0.2-0.3,0.2-0.4v-0.4c0-0.2-0.1-0.3-0.2-0.4s-0.3-0.2-0.4-0.2H22c-0.2,0-0.3,0.1-0.4,0.2s-0.2,0.3-0.2,0.4V34
	c0,0.2,0.1,0.3,0.2,0.4s0.3,0.2,0.4,0.2H29.5z M29.5,39.3c0.2,0,0.3-0.1,0.4-0.2s0.2-0.3,0.2-0.4v-0.4c0-0.2-0.1-0.3-0.2-0.4
	s-0.3-0.2-0.4-0.2H22c-0.2,0-0.3,0.1-0.4,0.2s-0.2,0.3-0.2,0.4v0.4c0,0.2,0.1,0.3,0.2,0.4s0.3,0.2,0.4,0.2H29.5z M39.7,34.6
	c0.2,0,0.3-0.1,0.4-0.2s0.2-0.3,0.2-0.4v-0.4c0-0.2-0.1-0.3-0.2-0.4s-0.3-0.2-0.4-0.2h-7.4c-0.2,0-0.3,0.1-0.4,0.2s-0.2,0.3-0.2,0.4
	V34c0,0.2,0.1,0.3,0.2,0.4s0.3,0.2,0.4,0.2H39.7z M39.7,39.3c0.2,0,0.3-0.1,0.4-0.2s0.2-0.3,0.2-0.4v-0.4c0-0.2-0.1-0.3-0.2-0.4
	s-0.3-0.2-0.4-0.2h-7.4c-0.2,0-0.3,0.1-0.4,0.2s-0.2,0.3-0.2,0.4v0.4c0,0.2,0.1,0.3,0.2,0.4s0.3,0.2,0.4,0.2H39.7z"/>
</svg>
