[
	"Agriculture Pêche Forêt",
	"Alimentation Consommation",
	"Art Artisanat",
	"Communication",
	"Construction Habitat",
	"Culture Patrimoine",
	"Education Populaire",
	"Environnement Ecologie",
	"Mobilité Transport",
	"Social Citoyenneté",
	"Soin Santé",
	"Spiritualité Esotérisme"
]