{
    
    "welcomeTpl" : "costum.views.custom.circuitCourt.home",
    "sourceKey" : true,
    "host" : "www.circuitcourt.re",
    "slug" : "circuitCourt",
    "favicon" : "/images/circuitCourt/logo.png",
    "metaImg" : "/images/circuitCourt/banner.png",
    "docTpl" : "costum.views.custom.circuitCourt.doc",
    "class" : {
        "function" : [ "prepData" ]
    },
    "js" : {
        "urls" : [ 
            "circuitCourt_index.js"
        ]
    },
    "htmlConstruct" : {
        "appRendering" : "horizontal",
        "subMenu" : false,
        "redirect" : {
            "logged" : "welcome",
            "unlogged" : "welcome"
        },
        "footer" : {
            "url" : "costum.views.custom.circuitCourt.footer"
        },
        "adminPanel" : {
            "add" : true,
            "js":true,
            "menu":{
                "statistic" : true,
                "directory" : true,
                "community": {
                    "show":true
                },
                "reference" : {
                    "show":true,
                    "initType" : [ 
                        "organizations"
                    ]
                },
                "organizations" : {
                    "label": "Structures",
                    "icon" : "users",
                    "view" : "organizations",
                    "class" : "text-green"
                },
                "category" : {
                    "label" : "Catégories",
                    "class" : "text-brown",
                    "view" : "category",
                    "icon" : "folder-open-o"
                }
            }
        },
        "header" : {
            "menuTop" : {
                "left" : {
                    "buttonList":{
                        "xsMenu":{
                            "buttonList":{

                            }
                        },
                        "logo" : {
                            "height" : 40
                        },
                        "searchBar" : true
                     }
                },
                "right" : {
                    "buttonList":{
                        "chat" : true,
                        "userProfil" : {
                            "img" : true,
                            "name" :false
                        },
                        "dropdown" : {
                            "connected":true,
                            "buttonList":{
                                "admin" : {"restricted": {"members":true}},
                                "logout" : true
                            }
                        },
                        "login" : true

                    }
                }
            }
        },
        "menuBottom" : {
            "add" : true
        }
    },
    "css" : {
        "urls" : [ 
            "circuitCourt.css"
        ],
        "loader" : {
            "background" : "white",
            "ring1" : {
                "color" : "#000",
                "height" : 360,
                "width" : 360,
                "left" : -15,
                "borderWidth" : 4,
                "top" : -35
            },
            "ring2" : {
                "color" : "#ee403b",
                "height" : 350,
                "width" : 350,
                "left" : -10,
                "borderWidth" : 5,
                "top" : -30
            }
        },
        "progress" : {
            "value" : {
                "background" : "#fada30"
            },
            "bar" : {
                "background" : "#fff"
            }
        },
        "menuTop" : {
            "background" : "white",
            "button" : {
                "paddingTop" : 0,
                "fontSize" : 30,
                "color" : "#000"
            },
            "badge" : {
                "background" : "#337ab7",
                "border" : "1px solid white"
            },
            "scopeBtn" : {
                "display" : "none"
            },
            
            "connectBtn" : {
                "background" : "#000",
                "color" : "white",
                "fontSize" : 18,
                "borderRadius" : 10,
                "padding" : "8px 15px"
            }
        },
        "menuApp" : {
            "top" : "58",
            "background" : "#ef5b2b",
            "button" : {
                "fontSize" : 25,
                "color" : "#fff",
                "hover" : {
                    "borderBottom" : "2px solid #fff"
                }
            }
        },
        "button" : {
            "footer" : {
                "add" : {
                    "organizations" : true
                }
            }
        },
        "color" : {
            "green" : "#93C020",
            "blue" : "#3595a8",
            "dark" : "#161315"
        }
    },
    "app" : {
        "#accueil" : {
            "hash" : "#app.welcome",
            "icon" : "",
            "subdomainName" : "Accueil",
            "placeholderMainSearch" : "Accueil",
            "inMenu" : true,
            "dropdownResult" : true
        },
        "#search" : {
            "icon" : "",
            "subdomainName" : "Annuaire",
            "placeholderMainSearch" : "Annuaire",
            "useFilter" : false,
            "inMenu" : true,
            "filters" : {
                "types" : [
                    "organizations"
                ]
            }
        },
        "#documentation" : {
            "hash":"#app.docs.page.welcome",
            "subdomainName" : "Documentation",
            "icon" : "",
            "inMenu" : true,
            "placeholderMainSearch" : "Documentation",
            "useFilter" : false,
            "useMapBtn":false
        }
    },
    "filters" : {
        "sourceKey" : true
    },
    "lists":{        
        "category":{
            "type":"badges",
            "category":"category",
            "sourceKey":true,
            "typeList" : "array"
        }
    },
    "typeObj" : {
        "organizations" : {
            "add" : true,
            "toBeValidated" : true,
            "color":"green",
            "name":"Proposer une iniative",
            "dynFormCostum" : {
                "beforeBuild":{
                    "properties":{
                        "badges":{
                            "inputType" : "select",
                            "label" : "Catégorie",
                            "order":2,
                            "placeholder" : "Sélectionner une catégorie",
                            "list" : "category",
                            "select2" : {
                                "multiple" : true
                            },
                            "rules" : {"required": true}
                        },
						"description" : {
							"inputType" : "textarea",
							"markdown" : true,
							"label" : "Description",
							"placeholder" : "Description",
							"order" : 12
						},
						"phone" : {
							"inputType" : "text",
							"label" : "Téléphone",
							"placeholder" : "Téléphone"
						}
                    }
                },
                "onload" : {
                    "actions" : {
                        
                        "html" : {
                            "infocustom" : ""
                        }
                    }
                }
            }
        },
        "category" : {
            "color" : "brown",
            "name" : "Catégorie",
            "add" : "onlyAdmin",
            "createLabel" : "Ajouter un genre",
            "icon" : "folder-open-o",
            "sameAs" : "badge",
            "formType" : "category",
            "formParent" : "badge",
            "explainText":"",
            "dynFormCostum" : {
                "beforeBuild" : {
                    "properties" : {
                        "name" : {
                            "label" : "Titre de la catégorie",
                            "order":1,
                            "placeholder" : "Titre de la catégorie"
                        },
                        "category" : {
                            "inputType" : "hidden",
                            "label" : "",
                            "placeholder" : "",
                            "value" : "category"
                        }
                    }
                },
                "onload" : {
                    "actions" : {
                        "setTitle" : "Ajouter une catégorie",
                        "hide" : {
                            "descriptiontextarea" : 1,
                            "parentfinder" : 1,
                            "icontext" : 1,
                            "colortext" : 1,
                            "imguploader" : 1,
                            "structagstags" : 1,
                            "tags1tags" : 1,
                            "tags2tags" : 1
                        }
                    }
                }
            }
        }
    }
}