   {
    "slug" : "ficheprojet",
    "welcomeTpl" : "costum.views.custom.ficheprojet.home",
    "formId" : "projetId",
    "docId":"id",
    "sourceKey" : true,
    "favicon" : "/ico/ficheprojet/favicon.ico",
    "metaImg" : "/images/ficheprojet/cv.png",
    "logoMin" : "/images/ficheprojet/cv.png",
    "js" : {
        "urls" : [ 
            
            "main.js"
        ]
    },
    "css" : {
        "urls" : [ 
            "style.css"
        ],
        "loader" : {
            "background" : "white",
            "ring1" : {
                "color" : "#bec9f7",
                "height" : 360,
                "width" : 360,
                "left" : -15,
                "borderWidth" : 4,
                "top" : -35
            },
            "ring2" : {
                "color" : "#71b62c",
                "height" : 350,
                "width" : 350,
                "left" : -10,
                "borderWidth" : 5,
                "top" : -30
            }
        },
        "progress" : {
            "value" : {
                "background" : "#bec9f7"
            },
            "bar" : {
                "background" : "#fff"
            }
        },
        "menuApp" : {
            "background" : "#bec9f7",
            "button" : {
                "fontSize" : 25,
                "color" : "#fff",
                "hover" : {
                    "borderBottom" : "2px solid #fff"
                }
            }
        },
        "button" : {
            "footer" : {
                "add" : true
            }
        },
        "color" : {
            "purple" : "#bec9f7"
        }
    },
    "htmlConstruct" : {
        "appRendering" : "horizontal",
        "header" : {
            "menuTop" : {
                "left" : {
                    "buttonList" : {
                        "logo" : {
                            "assets" : "co2",
                            "url" : "/images/logos/logo-full.png",
                            "urlMin" : "/images/logos/logo-min.png",
                            "heightMin" : 40,
                            "widthMin" : 45
                        }
                    }
                },
                "right" : {
                    "addClass" : "",
                    "buttonList" : {
                        "login" : false,
                        "languages" : {
                            "connected" : false
                        },
                        "home" : true,
                        "chat" : true,
                        "notifications" : true,
                        "userProfil" : {
                            "img" : true,
                            "name" : true,
                            "dashboard" : true
                        }
                    }
                }
            }
        },
        "directoryViewMode" : "block",
        "directory" : {
            "header" : {
                "map" : false,
                "viewMode" : false,
                "add" : {
                    "proposals" : true
                }
            }
        },
        "redirect" : {
            "logged" : "welcome",
            "unlogged" : "welcome"
        }
    },
    "app" : {
        "#home" : {
            "hash" : "#app.view",
            "icon" : "",
            "urlExtra" : "/page/home/url/costum.views.custom.ficheprojet.home",
            "useHeader" : true,
            "useFooter" : true,
            "useFilter" : false,
            "inMenu" : true,
            "subdomainName" : "Accueil"
        }
    },
    "typeObj" : {
        "organizations" : {
            "add" : true
        },
        "citoyens" : {
            "add" : true
        },
         "actualité" : {
            "add" : true,
            "name" : "Actus",
            "dynFormCostum" : {
                "beforeBuild" : {
                    "properties" : {
                        "name" : {
                            "label" : "Titre de l'actualité",
                            "placeholder" : "Entrez le titre de votre Actualité..."
                        },
                        "parent" : {
                            "label" : "Auteur(s)"
                        },
                        "shortDescription" : {
                            "inputType" : "textarea",
                            "label" : "Court résumé de l'actualité ",
                            "placeholder" : "Entrez un résumé de votre actualité (250 caractères max.)...",
                            "rules" : {
                                "maxlength" : 250
                            },
                            "order" : 5
                        },
                        "description" : {
                            "markdown" : true,
                            "label" : "Texte à ajouter popur plus d'informations",
                            "order" : 7
                        },
                        "image" : {
                            "label" : "Image(s)",
                            "order" : 8
                        },
                        "urls" : {
                            "label" : "Lien(s) : vidéo, page internet ou document...",
                            "order" : 9
                        }
                    }
                },
                "onload" : {
                    "actions" : {
                        "setTitle" : "Ecrire un article",
                        "html" : {
                            "infocustom" : "Formulaire de création d'un article"
                        },
                        "presetValue" : {
                            "type" : "article"
                        },
                        "hide" : {
                            "typeselect" : 1,
                            "breadcrumbcustom" : 1,
                            "locationlocation" : 1
                        }
                    }
                }
            }
        } 

    }
}
