{
    "welcomeTpl" : "costum.views.custom.filiereGenerique.home",
    "sourceKey" : true,
    "slug" : "filiereGenerique",
    "name" : "Filière",
    "js" : {
        "urls" : []
    },
    "filters" : {
        "sourceKey" : true
    },
    "htmlConstruct" : {
        "appRendering" : "vertical",
        "header":{
            "menuTop":{
                "right":{
                    "register" : true
                }
            }
        },
        "preview" : {
            "element" : "costum.views.custom.filiereGenerique.element.preview"
        },
        "redirect" : {
            "logged" : "welcome",
            "unlogged" : "welcome"
        },
        "adminPanel" : {
            "js":true,
            "add" : true,
            "menu" : {
                "directory" : true,
                "statistic" : true,
                "converter" : true,
                "import" : true,
                "community" : {
                    "show" : true
                },
                "reference" : {
                    "show" : true
                }
            }
        },
        "directoryViewMode" : "block",
        "directory" : {
            "header" : {
                "map" : false,
                "viewMode" : false,
                "add" : false
            },
            "preview" : true,
            "results" : {
                "projets" : {
                    "defaultImg" : "/images/mednumRhoneAlpe/lightbulb.svg"
                },
                "events" : {
                    "defaultImg" : "/images/mednumRhoneAlpe/agenda.svg"
                }
            },
            "footer" : {
                "add" : true
            }
        },
        "footer" : {
            "url" : "costum.views.custom.filiere.footer"
        },
        "menuBottom" : {
            "add" : true
        }
    },
    "css" : {
        "loader" : {
            "background" : "white",
            "ring1" : {
                "color" : "#6abea2",
                "height" : 360,
                "width" : 360,
                "left" : -15,
                "borderWidth" : 4,
                "top" : -35
            },
            "ring2" : {
                "color" : "#313757",
                "height" : 350,
                "width" : 350,
                "left" : -10,
                "borderWidth" : 5,
                "top" : -30
            }
        },
        "progress" : {
            "value" : {
                "background" : "#313757"
            },
            "bar" : {
                "background" : "red"
            }
        },
        "menuApp" : {
            "top" : "55",
            "background" : "#f6f6f6",
            "button" : {
                "fontSize" : 25,
                "color" : "#c7d301",
                "hover" : {
                    "borderBottom" : "2px solid #fff"
                }
            }
        },
        "button" : {
            "footer" : {
                "add" : {
                    "bottom" : 10,
                    "background" : "#c7d301",
                    "color" : "white"
                },
                "toolbarAdds" : {
                    "bottom" : 10
                }
            }
        },
        "color" : {
            "green" : "#c7d301",
            "bg-green" : "white"
        },
        "urls" : [
            "style.css"
        ]
    },
    "app" : {
        "#welcome" : {
            "subdomainName" : "Accueil"
        }
    },
    "typeObj" : {
        "organization" : {
            "dynFormCostum" : {
                "beforeBuild" : {
                    "properties" : {
                        "category" : {
                            "placeholder" : "Identifiez-vous à un acteur",
                            "inputType" : "select",
                            "label" : "Catégorie d'acteur*",
                            "class" : "form-control",
                            "order" : "1",
                            "labelInformation" : "Catégorie d'acteur",
                            "options" : {

                            }
                        }
                    }
                }
            }
        },
        "events" : {
          "add":true,
          "dynFormCostum":{}
        },
        "projects" : {
          "add":true,
          "dynFormCostum":{}
        }
    },
    "lists" : {
    }
}
