{
    "welcomeTpl" : "costum.views.custom.franceUnit.home",
    "docTpl" : "costum.views.custom.franceUnit.doc",
    "sourceKey" : true,
    "slug" : "franceUnit",
    "favicon" : "/ico//franceUnit/icon.png",
    "metaImg" : "/images/franceUnit/metaImg.png",
    "logoMin" : "/images/coeurNumerique/docDetail.png",
    "logo" : "/images/coeurNumerique/docDetail.png",
    "filters" : {
        "sourceKey" : false
    },
    "js" : {
        "urls" : [
            "franceUnit_index.js"
        ]
    },
    "htmlConstruct" : {
        "appRendering" : "vertical",
        "redirect" : {
            "logged" : "welcome",
            "unlogged" : "welcome"
        },
        "header" : {
            "menuTop" : {
                "navLeft" : {
                    "logo" : {
                        "height" : 40
                    },
                    "searchBar" : true,
                    "useFilter" : {
                        "scopeFilter" : false,
                        "showFilter" : false
                    }
                },
                "navRight" : {
                    "connected" : {
                        "dropdownUser" : {
                            "languages" : false,
                            "statistics" : false,
                            "documentation" : false,
                            "donate" : false,
                            "admin" : true,
                            "settings" : false,
                            "logout" : true
                        },
                        "userProfil" : {
                            "img" : true,
                            "name" : true
                        },
                        "networkFloop" : true,
                        "notifications" : true,
                        "dda" : false,
                        "chat" : true,
                        "home" : false,
                        "app" : false
                    },
                    "disconnected" : {
                        "languages" : false,
                        "login" : true
                    }
                }
            }
        },
        "adminPanel" : {
            "add" : true,
            "menu" : {
                "directory" : true,
                "statistic" : true,
                "converter" : true,
                "import" : true,
                "community":{
                    "show": true
                },
                "reference" : {
                    "show": true
                }
            }
        },
        "directory" : {
            "preview" : true,
            "footer" : {
                "add" : true
            }
        },
        "footer" : {
            "url" : "costum.views.custom.franceUnit.footer"
        },
        "element" : {
            "menuLeft" : {
                "detail" : true,
                "gallery" : true,
                "events" : true,
                "projects" : true,
                "community" : true,
                "collections":{
                    "label": "Favoris",
                    "icon":"star",
                    "class":"",
                    "separator":true,
                    "view":"directory",
                    "dataAttr":{
                        "dir":"collections",
                        "icon":"star"
                    },
                    "typeAllow":["citoyens"]
                }
            },
            "menuTop" : {
                "img" : true,
                "btnGroup" : {
                    "imgProfil" : true,
                    "nameProfil" : true,
                    "newspaper" : true,
                    "cospace" : false,
                    "chat" : false,
                    "create" : false,
                    "params" : {
                        "dropdown" : true
                    }
                },
                "navRight" : {
                    "connected" : {
                        "dropdownUser" : {
                            "languages" : true,
                            "statistics" : false,
                            "documentation" : false,
                            "donate" : false,
                            "admin" : true,
                            "settings" : false,
                            "logout" : true
                        },
                        "userProfil" : {
                            "img" : true
                        },
                        "networkFloop" : false,
                        "notifications" : true,
                        "dda" : false,
                        "chat" : false,
                        "home" : false,
                        "app" : false
                    },
                    "disconnected" : {
                        "languages" : false,
                        "login" : true,
                        "app" : true
                    }
                }
            }
        },
        "menuBottom" : {
            "add" : true
        }
    },
    "css" : {
        "urls" : [
            "filters.css"
        ],
        "loader" : {
            "background" : "white",
            "ring1" : {
                "color" : "#e7e6e6",
                "height" : 360,
                "width" : 360,
                "left" : -15,
                "borderWidth" : 4,
                "top" : -35
            },
            "ring2" : {
                "color" : "#32a2a4",
                "height" : 350,
                "width" : 350,
                "left" : -10,
                "borderWidth" : 5,
                "top" : -30
            }
        },
        "progress" : {
            "value" : {
                "background" : "#313757"
            },
            "bar" : {
                "background" : "red"
            }
        },
        "menuTop" : {
            "background" : "#e2e2e2",
            "button" : {
                "paddingTop" : 900,
                "fontSize" : 25,
                "color" : "#00aca9"
            },
            "badge" : {
                "background" : "#497614",
                "border" : "3px solid white"
            },
            "scopeBtn" : {
                "display" : "none"
            },
            "filterBtn" : {
                "display" : "none"
            },
            "connectBtn" : {
                "background" : "#313757",
                "color" : "white",
                "fontSize" : 18,
                "borderRadius" : 10,
                "padding" : "8px 15px"
            }
        },
        "menuApp" : {
            "top" : "55",
            "background" : "#f6f6f6",
            "button" : {
                "fontSize" : 25,
                "color" : "#41445c",
                "hover" : {
                    "borderBottom" : "2px solid #fff"
                }
            }
        },
        "button" : {
            "footer" : {
                "add" : {
                    "bottom" : 10,
                    "background" : "#00aca9",
                    "color" : "white"
                },
                "toolbarAdds" : {
                    "bottom" : 10
                }
            }
        },
        "font":{
            "url" : "/font/coeurNumerique/SharpSansNo1-Medium.ttf"
        }
    },
    "app" : {
        "#welcome" : {
            "subdomainName" : "Accueil Fillière Santé"
        },
        "#accueil" : {
            "hash" : "#app.welcome",
            "icon" : "home",
            "subdomainName" : "Accueil",
            "placeholderMainSearch" : "what are you looking for ?",
            "inMenu":true,
            "useFilter":false,
            "useHeader":true,
            "useFooter":true,
            "dropdownResult":true,
            "useMapBtn":false
        },
        "#search" : {
            "hash" : "#app.search",
            "icon" : "search",
            "subdomainName" : "Annuaire",
            "placeholderMainSearch" : "what are you looking for ?",
            "inMenu":true,
            "useHeader" : false,
            "useFilter" : true,
            "useFooter" : true,
            "header": "costum.views.custom.franceUnit.filters",
            "urlExtra" : "/page/search",
            "filters" : {
                "types" : [ "projects"]
            },
            "searchObject" : {
                "indexStep" : "10",
                "sourceKey" : ""
            }
        },
        "#agenda" : {
            "hash" : "#app.agenda",
            "icon" : "calendar",
            "subdomainName" : "Agenda",
            "placeholderMainSearch" : "what are you looking for ?",
            "inMenu":true,
            "useHeader" : false,
            "useFilter" : false,
            "useFooter" : true,
            "header": "costum.views.custom.franceUnit.filters",
            "urlExtra" : "/page/agenda",
            "filters" : {
                "types" : [ "events"]
            },
            "searchObject" : {
                "indexStep" : "10",
                "sourceKey" : ""
            }
        },
        "#live" : {
            "subdomainName" : "Le live",
            "formCreate" : false,
            "useFilter" : false,
            "viewMode" : "list",
            "setParams" : {
                "searchTags" : ["covid19"]
            }
        },
        "#productor" : {
            "hash" : "#app.search",
            "icon" : "",
            "subdomainName" : "Les projets",
            "header":"costum.views.custom.ctenat.filters",
            "urlExtra" : "/page/productor",
            "placeholderMainSearch" : "what are you looking for ?",
            "inMenu":false,
            "useHeader" : false,
            "useFilter" : false,
            "useFooter" : true,
            "filters" : {
                "category": "productor",
                "types" : [ "projects" ]
            },
            "searchObject" : {
                "indexStep" : "0"
            }
        },
        "#product" : {
            "hash" : "#app.search",
            "icon" : "",
            "subdomainName" : "Les projets",
            "header":"costum.views.custom.ctenat.filters",
            "urlExtra" : "/page/product",
            "placeholderMainSearch" : "what are you looking for ?",
            "inMenu":false,
            "useHeader" : false,
            "useFilter" : false,
            "useFooter" : true,
            "filters" : {
                "category": "product",
                "types" : [ "projects" ]
            },
            "searchObject" : {
                "indexStep" : "0"
            }
        },
        "#pratice" : {
            "hash" : "#app.search",
            "icon" : "",
            "subdomainName" : "Les projets",
            "header":"costum.views.custom.ctenat.filters",
            "urlExtra" : "/page/pratice",
            "placeholderMainSearch" : "what are you looking for ?",
            "inMenu":false,
            "useHeader" : false,
            "useFilter" : false,
            "useFooter" : true,
            "filters" : {
                "category": "pratice",
                "types" : [ "projects" ]
            },
            "searchObject" : {
                "indexStep" : "0"
            }
        },
        "#annonces" : {
            "subdomainName" : "Les besoins",
            "icon" : "cogs",
            "useFilter" : false,
            "filters" : {
                "types" : "ressources"
            }
        },
        "#documentation" : {
            "hash":"#app.docs.page.welcome",
            "subdomainName" : "Documentation",
            "icon" : "book",
            "inMenu" : true,
            "onlyMember" : true,
            "dropdownResult":true,
            "placeholderMainSearch" : "what are you looking for ?",
            "useFilter" : false,
            "useMapBtn":false
        }
    },
    "typeObj" : {
        "projects" : {
            "add" : true,
            "dynFormCostum" : {
                "beforeBuild" : {
                    "properties" : {
                        "parent" : {
                            "inputType" : "finder",
                            "id" : "parent",
                            "label" : "Qui porte le projet",
                            "initMe":false,
                            "placeholder":"Sélectionner un projet",
                            "rules" : { "required" : false, "lengthMin":[1, "parent"]}, 
                            "initType": ["organizations", "projects"],
                            "openSearch" :true
                        },
                        "category" : {
                            "placeholder" : "Proposez une action",
                            "inputType" : "select",
                            "label" : "Type d'action",
                            "order" : 5,
                            "options" : {
                                "actions" : "Action",
                                "actions générique" : "Action générique"
                            }
                        },
                        "tags" : {
                            "value" : "covid19"
                        }
                    }
                }
            }
        },
        "ressources" : {
            "add" : true
        },
        "events" : {
            "add" : true,
            "dynFormCostum" : {
                "beforeBuild" : {
                    "properties" : {
                        "tags" : {
                            "value" : "covid19"
                        }
                    }
                }
            }
        }
    },
    "lists":{        
        "domainAction":{
            "type":"badges",
            "category":"domainAction",
            "sourceKey":true
        },
        "actions" : [
            "actions",
            "actions générique"
        ]
    }
}
