{
    "slug": "meteolamer",
    "host":"www.meteolamer.re",
    "welcomeTpl": "costum.views.custom.meteolamer.home",
    "sourceKey": true,
    "metaTitle": "Meteolamer",
    "formId" : "projetId",
    "docId":"id",
    "admin": {
        "email": ""
    },
    "js": {
        "urls": ["leaflet-dashflow.js", "leaflet-arrows.js"]
    },
    "dynForm" : {
        "jsonSchema" : {
            "title" : "Template config",
            "type" : "object"
        }
    },
    "app" : {
        "#home" : {
            "hash" : "#app.view",
            "icon" : "",
            "urlExtra" : "/page/home/url/costum.views.custom.meteolamer.home",
            "useHeader" : true,
            "useFooter" : false,
            "useFilter" : false,
            "inMenu" : true,
            "subdomainName" : "Accueil"
        }
    },
    "css": {
        "urls": [
            "meteolamer_index.css"
        ],
        "loader": {
            "background": "white",
            "ring1": {
                "color": "#3a8037",
                "height": 360,
                "width": 360,
                "left": -15,
                "borderWidth": 4,
                "top": -35
            },
            "ring2": {
                "color": "#f8904a",
                "height": 350,
                "width": 350,
                "left": -10,
                "borderWidth": 5,
                "top": -30
            }
        },
        "progress": {
            "value": {
                "background": "#3a8037"
            },
            "bar": {
                "background": "#fff"
            }
        },
        "menuApp": {
            "background": "#3a8037",
            "button": {
                "fontSize": 80,
                "color": "#008037",
                "hover": {
                    "borderBottom": "2px solid #fff"
                }
            }
        },
        "button" : {
            "footer" : {
                "add" : {
                    "paddingLeft":"10px",
                    "fontSize" :30,
                    "bottom" : 1000,
                    "background" : "transparent",
                    "color" : "#098048"
                },
                "toolbarAdds" : {
                    "bottom" : 10,
                    "paddingLeft":"40px",
                    "fontSize" :50,
                    "left": "0"
                }
            }
        },
        "menuTop" : {
            "app" : {
                "paddingLeft" : "30px",
                "button" : {
                    "fontSize" : 20,
                    "fontWeight" : 600,
                    "textTransform" : "capitalize",
                    "color" : "#707070"
                }
            }
        }
    },
    "htmlConstruct": {
        "appRendering": "horizontal",
        "header": {
            "menuTop": {
                "left": {
                    "buttonList": {
                        "logo": {
                            "height": 50,
                            "heightMin": 50
                        }
                    }
                },
                "right" : {
                    "buttonList" : {
                        "app" : {
                            "label" : true,
                            "icon" : true,
                            "tooltips" : true,
                            "buttonList":{
                                "#spotmap":true
                            }
                        },
                        "userProfil" : {
                            "img" : true,
                            "name" : true
                        },
                        "dropdown" : {
                            "connected":true,
                            "buttonList":{
                                "admin" : true,
                                "settings" : true,
                                "logout" : true
                            }
                        },
                        "login" : true
                    }
                }
            }
        },
        "directoryViewMode": "block",
        "redirect": {
            "logged": "welcome",
            "unlogged": "welcome"
        }
    },
    "filters" : {
        "sourceKey" : true
    }
}