    {
        "sourceKey": true,
        "isTemplate": false,
        "slug" : "rija",
        "welcomeTpl" : "costum.views.custom.rija.home",
        "favicon": "/images/votreIdeeDeCostum/logoVotreIdeeCostum.png",
        "metaImg": "/images/votreIdeeDeCostum/logo.png",
        "htmlConstruct": {
            "appRendering": "horizontal",
            "redirect": {
                "logged": "welcome",
                "unlogged": "welcome"
            },
            "header": {
                "menuTop": {
                    "navLeft": {
                        "logo": {
                            "height": 30
                        },
                        "searchBar": false,
                        "useFilter": {
                            "scopeFilter": false,
                            "showFilter": false
                        }
                    },
                    "navRight": {
                        "connected": {
                            "dropdownUser": {
                                "languages": false,
                                "statistics": false,
                                "documentation": false,
                                "donate": false,
                                "admin": false,
                                "settings": false,
                                "logout": true
                            },
                            "userProfil": {
                                "img": true,
                                "name": false
                            },
                            "networkFloop": false,
                            "notifications": false,
                            "dda": false,
                            "chat": false,
                            "home": false,
                            "app": false
                        },
                        "disconnected": {
                            "languages": false,
                            "login": true
                        }
                    }
                }
            },
            "directory": {
                "footer": {
                    "add": false
                }
            },
            "footer": false,
            "element": {
                "menuLeft": {
                    "detail": true,
                    "gallery": true,
                    "events": true,
                    "projects": true,
                    "community": true
                },
                "menuTop": {
                    "img": false,
                    "btnGroup": {
                        "imgProfil": true,
                        "nameProfil": true,
                        "newspaper": true,
                        "cospace": false,
                        "chat": true,
                        "create": true,
                        "params": {
                            "dropdown": true
                        }
                    },
                    "navRight": {
                        "connected": {
                            "dropdownUser": {
                                "languages": false,
                                "statistics": false,
                                "documentation": false,
                                "donate": false,
                                "admin": false,
                                "settings": false,
                                "logout": true
                            },
                            "userProfil": {
                                "img": true
                            },
                            "networkFloop": true,
                            "notifications": false,
                            "dda": false,
                            "chat": true,
                            "home": true,
                            "app": false
                        },
                        "disconnected": {
                            "languages": true,
                            "login": true,
                            "app": false
                        }
                    }
                }
            },
            "menuBottom": {
                "add": false
            }
        },
        "css": {
            "loader": {
                "background": "white",
                "ring1": {
                    "color": "#354d57",
                    "height": 360,
                    "width": 360,
                    "left": -15,
                    "borderWidth": 4,
                    "top": -35
                },
                "ring2": {
                    "color": "#92bf34",
                    "height": 350,
                    "width": 350,
                    "left": -10,
                    "borderWidth": 5,
                    "top": -30
                }
            },
            "progress": {
                "value": {
                    "background": "#313757"
                },
                "bar": {
                    "background": "red"
                }
            },
            "menuTop": {
                "background": "#fcfdfd",
                "button": {
                    "paddingTop": 900,
                    "fontSize": 20,
                    "color": "#2f3e4f"
                },
                "badge": {
                    "background": "#497614",
                    "border": "3px solid white"
                },
                "scopeBtn": {
                    "display": "none"
                },
                "filterBtn": {
                    "display": "none"
                },
                "connectBtn": {
                    "background": "#313757",
                    "color": "white",
                    "fontSize": 18,
                    "borderRadius": 10,
                    "padding": "8px 15px"
                }
            },
            "menuApp": {
                "top": "50",
                "background": "#f6f6f6",
                "button": {
                    "fontSize": 25,
                    "color": "#41445c",
                    "hover": {
                        "borderBottom": "2px solid #fff"
                    }
                }
            },
            "button": {
                "footer": {
                    "add": {
                        "bottom": 10,
                        "background": "#2f3e4f",
                        "color": "white"
                    },
                    "toolbarAdds": {
                        "bottom": 10
                    }
                }
            },
            "color": {
                "blue": "#354d57",
                "bg-green": "#92bf34"
            }
        },
        "app": {},
        "list": [
            "filiereCostum",
            "campagne",
            "costumDesCostums",
            "templateCostumDesTiersLieux"
        ]
    }