{
    "host" : "costum.tiers-lieux.org",
    "welcomeTpl" : "costum.views.custom.tiersLieux.home",
    "sourceKey" : true,
    "slug" : "tiersLieux",
    "favicon" : "/images/tiersLieux/logo-tiersLieux.png",
    "metaImg" : "/images/tiersLieux/logo-tiersLieux.png",
    "js" : {
        "urls" : [ 
            "tiersLieux_index.js"
        ]
    },
    "class" : {
        "function" : ["elementAfterSave"]
    },
    "typeObj" : {
        "organizations" : {
            "add" : true,
            "color":"dark",
            "name":"Tiers lieux",
            "icon" : "home",
            "dynFormCostum" : {
                "beforeBuild":{
                    "properties":{
                        "formLocality":{
                            "rules": {
                                "required":true
                            }
                        },
                        "url" : {
                            "label":"Site internet (commençant par \" http:// \")"
                        },
                        "type" : {
                            "isSelect2" : true
                        },
                        "name":{
                            "label":"Nom du tiers-lieu",
                            "placeholder":"Nom du tiers-lieu"
                        },
                        "email":{
                            "label":"Email contact du tiers-lieu"
                        },
                        "shortDescription":{
                            "order":3
                        },
                        "typePlace" : {
                            "order":4,
                            "inputType" : "select",
                            "label" : "Type de lieu",
                            "placeholder" : "Choisir un type de lieu",
                            "list" :"typePlace",
                            "groupOptions" : false,
                            "groupSelected" : false,
                            "optionsValueAsKey":true,
                            "select2" : {
                                "multiple" : true
                            }
                        },
                        "services" : {
                            "inputType" : "select",
                            "order":5,
                            "label" : "Services complémentaires",
                            "placeholder" : "Choisir un service",
                            "list" : "services",
                            "groupOptions" : false,
                            "groupSelected" : false,
                            "optionsValueAsKey":true,
                            "select2" : {
                                "multiple" : true
                            }
                        },
                        "manageModel" : {
                            "inputType" : "select",
                            "order":6,
                            "label" : "Mode de gestion",
                            "placeholder" : "Quel(s) type(s) de structure(s) gère(nt) et anime(nt) votre espace ?",
                            "list" : "manageModel",
                            "groupOptions" : false,
                            "groupSelected" : false,
                            "optionsValueAsKey":true,
                            "select2" : {
                                "multiple" : true
                            },
                            "rules": {
                                "required":true
                            }   
                        },
                        "state" : {
                            "inputType" : "select",
                            "label" : "Etat du projet",
                            "order":7,
                            "placeholder" : "Choisir un état d'avancement",
                            "list" : "state",
                            "groupOptions" : false,
                            "groupSelected" : false,
                            "optionsValueAsKey":true,
                            "select2" : {
                                "multiple" : false
                            }
                        },
                        "spaceSize" : {
                            "inputType" : "select",
                            "order":8,
                            "label" : "Taille de l'espace",
                            "placeholder" : "Choisir une taille",
                            "list" : "spaceSize",
                            "groupOptions" : false,
                            "groupSelected" : false,
                            "optionsValueAsKey":true,
                            "select2" : {
                                "multiple" : false
                            }
                        },
                        "network" : {
                            "inputType" : "select",
                            "order":9,
                            "label" : "Réseau avec lequel vous êtes en lien sur votre territoire",
                            "placeholder" : "Choisir un réseau",
                            "list" : "network",
                            "groupOptions" : false,
                            "groupSelected" : false,
                            "optionsValueAsKey":true,
                            "select2" : {
                                "multiple" : false
                            }
                        },
                        "greeting" : {
                            "inputType" : "select",
                            "order":10,
                            "label" : "Actions d’accueil, d’orientation et d’accompagnement que vous mettez en place pour d’autres porteurs de projet de tiers-lieux",
                            "placeholder" : "Sélectionner la(es) action(s)",
                            "list" : "greeting",
                            "groupOptions" : false,
                            "groupSelected" : false,
                            "optionsValueAsKey":true,
                            "select2" : {
                                "multiple" : true
                            }
                        },
                        "certification" : {
                            "inputType" : "select",
                            "order":11,
                            "label" : "Etes-vous Fabrique de Territoire ?",
                            "placeholder" : "Choisir un label",
                            "list" : "certification",
                            "groupOptions" : false,
                            "groupSelected" : false,
                            "optionsValueAsKey":true,
                            "select2" : {
                                "multiple" : false
                            }
                        },
                        "compagnon" : {
                            "inputType" : "select",
                            "order":12,
                            "label" : "Vous souhaitez être inscrit comme “tiers-lieu compagnon” et ainsi accueillir des porteurs de projet qui souhaitent en savoir plus sur les tiers-lieux, bénéficier de vos conseils et de votre expérience ?",
                            "placeholder" : "Si oui, sélectionnez 'Compagnon FTL' ci-dessous",
                            "info" : "<a href='https://francetierslieux.fr/wp-content/uploads/2020/12/Charte_TLCompagnon.pdf' target='_blank'>Qu’est-ce qu’un tiers-lieu compagnon ?</a>",
                            "list" : "compagnon",
                            "groupOptions" : false,
                            "groupSelected" : false,
                            "optionsValueAsKey":true,
                            "select2" : {
                                "multiple" : false
                            }
                        },
                        "territory" : {
                            "inputType" : "select",
                            "order":13,
                            "label" :"Territoire d'implantation de votre tiers-lieu",
                            "placeholder" : "Territoire d'implantation",
                            "list" : "territory",
                            "groupOptions" : false,
                            "groupSelected" : false,
                            "optionsValueAsKey":true,
                            "select2" : {
                                "multiple" : false
                            }
                        },
                        "description" : {
                            "inputType" : "textarea",
                            "markdown" : true,
                            "label" : "description longue"
                        },
                        "mobile":{
                            "label" : "Contact téléphone",
                            "placeholder" : "Renseigner un numéro de téléphone",
                            "inputType" : "text"
                        },
                        "mainTag" : {
                            "inputType" : "hidden"
                        }
                    }
                },
                "afterSave":"costum.tiersLieux.organizations.afterSave",
                "formData" : "costum.tiersLieux.organizations.formData",
                "onload" : {
                    "actions" : {
                        "setTitle" : "<span class='text-title'>VOUS VOULEZ AJOUTER VOTRE TIERS-LIEU SUR LA CARTE</span><span class='interogation'>?</span>",
                        "html" : {
                            "infocustom" : ""
                        },
                        "presetValue" : {
                            "mainTag" : "TiersLieux"
                        },
                        "hide" : {
                            "tagstags":1,
                            "publiccheckboxSimple" : 1,
                            "categoryselect":1
                        }
                    }
                },
                "config" : {
                    "unlogged" : {
                        "gtu" : "<span class='col-xs-12'>En validant, vous acceptez que l’ensemble des données soient affichées sur la cartographie et acceptez nos <a href='' target='_blank' style='color: #FF286B;'>CGU</a>.</span>"               
                    }
                }
            }
        },
        "reseau":{
          "add":"onlyAdmin",
          "icon" : "users",
          "color" : "#FF286B",
          "sameAs":"organization",
          "formType":"reseau",
          "formParent":"organization",
          "name":"Réseaux de Tiers-lieux",
          "dynFormCostum":{
            "beforeBuild":{
                "properties":{
                    "formLocality":{
                      "rules":{
                         "required":true
                      }
                   },
                   "url":{
                      "label":"Site internet (commençant par \" http:// \")"
                   },
                   "type":{
                      "isSelect2":true
                   },
                   "name":{
                      "label":"Nom du réseau",
                      "placeholder":"Nom du réseau",
                      "inputType":"select",
                      "list":"network",
                      "groupOptions":false,
                      "groupSelected":false,
                      "optionsValueAsKey":true,
                      "select2":{
                         "multiple":false
                      }
                   },
                   "email":{
                      "label":"Email contact du réseau"
                   },
                   "shortDescription":{
                      "order":3
                   },
                   "physicalLocation":{
                      "order":4,
                      "inputType":"checkboxSimple",
                      "label":"Lieu physique d'accueil",
                      "params":{
                         "onText":"Oui",
                         "offText":"Non",
                         "onLabel" : "Existence d'un lieu",
                         "offLabel" : "Absence de lieu",
                         "labelText" : "Lieu physique d'accueil"
                      },
                      "checked":false,
                      "optionsValueAsKey":true
                   },
                   "typePlace" : {
                            "order":4,
                            "inputType" : "select",
                            "label" : "Thématique(s) du Réseau",
                            "placeholder" : "Choisir une ou plusieurs thématiques",
                            "list" :"typePlace",
                            "groupOptions" : false,
                            "groupSelected" : false,
                            "optionsValueAsKey":true,
                            "select2" : {
                                "multiple" : true
                            }
                        },
                   "manageModel":{
                      "inputType":"select",
                      "order":6,
                      "label":"Mode de gestion",
                      "placeholder":"Quel(s) type(s) de structure(s) gère(nt) et anime(nt) votre espace ?",
                      "list":"manageModel",
                      "groupOptions":false,
                      "groupSelected":false,
                      "optionsValueAsKey":true,
                      "select2":{
                         "multiple":true
                      },
                      "rules":{
                         "required":true
                      }
                   },
                   "state":{
                      "inputType":"select",
                      "label":"Etat du projet",
                      "order":7,
                      "placeholder":"Choisir un état d'avancement",
                      "list":"state",
                      "groupOptions":false,
                      "groupSelected":false,
                      "optionsValueAsKey":true,
                      "select2":{
                         "multiple":false
                      }
                    },  
                      "greeting":{
                         "inputType":"select",
                         "order":10,
                         "label":"Actions d’accueil, d’orientation et d’accompagnement que vous mettez en place pour d’autres porteurs de projet de tiers-lieux",
                         "placeholder":"Sélectionner la(es) action(s)",
                         "list":"greeting",
                         "groupOptions":false,
                         "groupSelected":false,
                         "optionsValueAsKey":true,
                         "select2":{
                            "multiple":true
                         }
                      },
                      "certification":{
                         "inputType":"select",
                         "order":11,
                         "label":"Etes-vous Fabrique de Territoire ?",
                         "placeholder":"Choisir un label",
                         "list":"certification",
                         "groupOptions":false,
                         "groupSelected":false,
                         "optionsValueAsKey":true,
                         "select2":{
                            "multiple":false
                         }  
                      },
                      "description":{
                         "inputType":"textarea",
                         "markdown":true,
                         "label":"description longue"
                      },
                      "level":{
                         "inputType":"select",
                         "order":12,
                         "label":"Portée territoriale de votre réseau",
                         "placeholder":"Périmètre géographique",
                         "list":"level",
                         "groupOptions":false,
                         "groupSelected":false,
                         "optionsValueAsKey":false,
                         "select2":{
                            "multiple":false
                         },
                         "rules" : {
                            "required" : true
                         }
                      },
                      "image" : {
                        "inputType" : "uploader",
                        "docType" : "image",
                        "label" : "Logo de votre réseau", 
                        "showUploadBtn" : false,
                        "template":"qq-template-gallery",
                        "filetypes":["jpeg", "jpg", "gif", "png"],
                          "rules" : {
                            "required" : true
                          }
                      },    
                      "mobile":{
                         "label":"Contact téléphone",
                         "placeholder":"Renseigner un numéro de téléphone",
                         "inputType":"text"
                      },
                      "mainTag":{
                         "inputType":"hidden"
                      },
                      "category":{
                        "inputType":"hidden",
                        "value":"network"
                      }
               }
            },
            "afterSave":"costum.tiersLieux.organizations.afterSave",
            "formData":"costum.tiersLieux.organizations.formData",
            "onload":{
               "actions":{
                  "setTitle":"<span class='text-title'>VOUS VOULEZ AJOUTER VOTRE RÉSEAU SUR LA CARTE</span><span class='interogation'>?</span>",
                  "html":{
                     "infocustom":""
                  },
                  "presetValue":{
                     "mainTag":"TiersLieux"
                  },
                  "hide":{
                     "tagstags":1,
                     "publiccheckboxSimple":1,
                     "categoryselect":1
                  }
               }
            },
            "config":{
               "unlogged":{
                  "gtu":"<span class='col-xs-12'>En validant, vous acceptez que l’ensemble des données soient affichées sur la cartographie et acceptez nos <a href='' target='_blank' style='color: #FF286B;'>CGU</a>.</span>"
               }
            }
         }
      }
     
    },
    "lists":{
        "level" : {
          "level1" : "National",
          "level3" : "Régional",
          "level4" : "Départemental",
          "level5" : "Communauté de communes"
        },
        "typePlace":[
            "Coworking",
            "Ateliers artisanaux partagés", 
            "Fablab / Atelier de Fabrication Numérique",
            "Tiers-lieu culturel",
            "Tiers-lieu agricole",
            "Cuisine partagée / Foodlab",
            "LivingLab / Laboratoire d'innovation sociale"
        ], 
        "services": [
            "Accompagnement des publics", 
            "Action sociale",
            "Aiguillage / Orientation",
            "Bar / café",
            "Boutique / Épicerie",
            "Coopérative d'Activités et d'Emploi / Groupement d'employeur",
            "Cantine / restaurant",
            "Centre de ressources",
            "Chantier participatif",
            "Complexe évènementiel",
            "Conciergerie ",
            "Domiciliation",
            "Espace de stockage",
            "Espace détente",
            "Espace enfants",
            "Formation / Transfert de savoir-faire / Éducation",
            "Habitat",
            "Incubateur",
            "Lieu d'éducation populaire et nouvelles formes d'apprentissage",
            "Maison de services au public",
            "Marché",
            "Média et son",
            "MediaLab",
            "Médiation numérique",
            "Offre artistique ou culturelle",
            "Pépinière d'entreprises",
            "Point d'appui à la vie associative",
            "Point Information Jeunesse",
            "Point d'information touristique",
            "Pratiques de soin (art thérapie, massage, médecine douce, méditation...)",
            "Résidences d'artistes",
            "Ressourcerie / recyclerie",
            "Service enfance-jeunesse",
            "Services liés à la mobilité"
        ],
        "manageModel" : [
            "Association",
            "Collectif citoyen",
            "SARL-SA-SAS",
            "SCIC-SCOP",
            "Société Publique Locale",
            "Pôle d'Equilibre Territorial Rural",
            "Département",
            "Région",
            "Groupement d'Intérêt Public",
            "Intercommunalité",
            "Université",
            "Collège",
            "Lycée"
        ],
        "state" : [
              "En projet",
              "En fonctionnement"
        ],
        "spaceSize" : [
                "Moins de 60m²",
                "Entre 60 et 200m²",
                "Plus de 200m²"
        ],
        "network" : [
            "A+ C'est Mieux",
            "Actes‐IF",
            "Artfactories/Autresparts",
            "Bienvenue dans la Canopée",
            "Cap Tiers‐Lieux",
            "Cédille Pro",
            "Collectif des Tiers‐Lieux Ile‐de‐France",
            "Collectif Hybrides",
            "Compagnie des Tiers‐Lieux",
            "Coopérative des Tiers‐Lieux",
            "Coordination Nationale des Lieux Intermédiaires et Indépendants (CNLII)",
            "Cowork'in Tarn",
            "Coworking Grand Lyon",
            "CRLII Occitanie",
            "GIP Recia",
            "Hub France Connectée",
            "L'ALIM (l'Assemblée des lieux intermédiaires marseillais)",
            "La Trame 07",
            "Label Tiers‐Lieux Occitanie",
            "Label C3",
            "Label Tiers‐Lieux Normandie",
            "Le DOG",
            "Le LIEN",
            "Lieux Intermédiaires en région Centre",
            "Réseau des tiers‐lieux Bourgogne Franche Comté",
            "Réseau Français des Fablabs",
            "Réseau Médoc",
            "Réseau TELA",
            "Tiers‐Lieux Edu"
        ],
        "greeting" : [
            "Conseil et orientation avec contact téléphonique", 
            "Point d'échange physique proposé pour monter en compétences respectivement",
            "Voyage apprenant pour découverte de lieux",
            "Accueil d'élus pour acculturation",
            "Visioconférence de présentations",
            "Étude d'opportunité",
            "Aide à la réalisation de dossiers pour AMI ou subventions",
            "Conseil projet",
            "Incubation de projets", 
            "Mentoring / coaching de porteurs de projet",
            "Parcours de formation pour des porteurs de projet"   
        ],
        "certification" : [
            "Fabrique de Territoire", 
            "Fabrique Numérique de Territoire"
        ],
        "compagnon" : [
            "Compagnon France Tiers-Lieux"
        ],
        "territory" : [
            "En agglomérations",
            "En métropole",
            "En milieu rural",
            "En ville moyenne (entre 20000 et 100000 habitants)"
        ]      
    },
    "htmlConstruct" : {
        "loadingModal" : {
            "logo" : "/images/tiersLieux/logo-tiersLieux.png"
        },
        "appRendering" : "horizontal",
        "redirect" : {
            "logged" : "search",
            "unlogged" : "search"
        },
        "adminPanel" : {
            "js":true,
            "add" : true,
            "menu":{
                "statistic" : true,
                "directory" : false,
                "converter" : true,                 
                "import" : true,
                "community": {
                    "show":true
                },
                "reference" : {
                    "show":true,
                    "initType" : [ 
                        "organizations"
                    ]
                },
                "tiersLieux" : {
                    "label" : "Tiers-lieux",
                    "class" : "text-dark",
                    "view" : "tiersLieux",
                    "icon" : "map-marker"
                },
                "existingReference" : {
                    "label" : "Référencement des lieux communectés",
                    "class" : "text-dark",
                    "view" : "existingReference",
                    "icon" : "list"
                }
            }
        },
        "preview": {
            "element" : "costum.views.custom.tiersLieux.preview"
        },
        "header" : {
            "menuTop" : {
                "left" : {
                    "buttonList":{
                        "logo" : {
                            "height" : 40,
                            "href" : "#"
                        },
                        "searchBar" : {
                            "class":" pull-left margin-top-5 margin-left-15 hidden-xs"
                        }
                    }
                },
                "right" : {
                    "addClass":"margin-top-10",
                    "buttonList" : {
                        "userProfil" : {
                            "img" : true,
                            "name" : true
                        },
                        "dropdown" : {
                            "connected":true,
                            "buttonList":{
                                "admin" : true,
                                "settings" : true,
                                "logout" : true
                            }
                        },
                        "login" : true,
                        "map" : true
                    }
                }
            }
        },
        "menuBottom" : {
            "buttonList":{
                "add" : {
                    "label" : "Ajouter un tiers-lieu"
                }
            }
        },
        "menuRight":{
            "buttonList":{
                "map" : {
                    "icon":"list",
                    "label":"Afficher l’annuaire",
                    "id" : "show-button-map",
                    "addClass":"changelabel"
                }
            }
        },
        "element" : {
            "initView" : "detail",
            "js" : "pageProfil.js",
            "css" : "pageProfil.css",
            "banner" : {
                "headerInfos": "costum.views.custom.tiersLieux.element.headerInfos",
                "img" : "",
                "preferences" : false,
                "editButton" : {
                    "dynform" : true
                },
                "badges" : true,
                "costumize" : {
                    "slug" : "reseauTierslieux",
                    "restricted": {
                      "types" : [ 
                        "organizations"
                      ],
                      "category":["network"]
                    }
                }    
            },
            "menuLeft" : {
                "buttonList":{
                    "answerInvitation":true,
                    "linksBtn":true,
                    "invite":true,
                    "detail" : true,
                    "community" : true,
                    "ressources" : {
                        "label" : "Services",
                        "restricted":{
                            "types" : [ 
                                "organizations"
                            ],
                            "category":["network"]
                        }
                    },
                    "events" : {
                        "label" : "Agenda",
                        "icon" : "calendar",
                        "dataAttr" : {
                            "dir" : "events",
                            "icon" : "calendar"
                        },
                        "restricted":{
                            "types" : [ 
                                "organizations"
                            ],
                            "category":["network"]
                        }
                    }
                }
            },
            "menuTop" : {
                "left":{
                    "buttonList":{
                        "imgUploader":true
                    }
                },
                "right" : {
                    "buttonList":{
                        "xsMenu":{
                            "buttonList":{
                                "detail" : true,
                                "community" : true,
                                "history" : true,
                                "settings" : true,
                                "confidentialityCommunity":true,
                                "delete" : true
                            }
                        },
                        "imgProfil":true,
                        "nameProfil":true,
                        "dropdown" : {
                            "buttonList":{
                                "history" : true,
                                "settings" : true,
                                "confidentialityCommunity":true,
                                "delete" : true
                            }
                        },
                        "detail" : true,
                        "community" : true,
                        "annonces" : {
                            "label" : "Services",
                            "restricted":{
                                "types" : [ 
                                    "organizations"
                                ],
                                "category":["network"]
                            }
                        },
                        "events" : {
                            "label" : "Agenda",
                            "icon" : "calendar",
                            "dataAttr" : {
                                "dir" : "events",
                                "icon" : "calendar"
                            }
                        }
                    }
                }
                
            }
        }
    },
    "css" : {
        "urls" : [ 
            "tiersLieux_filters.css",
            "tiersLieux_index.css"
        ],
        "loader" : {
            "background" : "white",
            "ring1" : {
                "color" : "#fade37",
                "height" : 360,
                "width" : 360,
                "left" : -15,
                "borderWidth" : 4,
                "top" : -35
            },
            "ring2" : {
                "color" : "#000",
                "height" : 350,
                "width" : 350,
                "left" : -10,
                "borderWidth" : 5,
                "top" : -30
            }
        },
        "progress" : {
            "value" : {
                "background" : "#fade37"
            },
            "bar" : {
                "background" : "#000"
            }
        },
        "menuTop" : {
            "background" : "white",
            "button" : {
                "paddingTop" : 5,
                "fontSize" : 20,
                "color" : "#fff"
            },
            "badge" : {
                "background" : "#337ab7",
                "border" : "1px solid white"
            },
            "scopeBtn" : {
                "display" : "none"
            },
            
            "connectBtn" : {
                "background" : "#000",
                "color" : "white",
                "fontSize" : 18,
                "borderRadius" : 10,
                "padding" : "8px 15px"
            }
        },
        "menuApp" : {
            "display" : "none",
            "top" : "58",
            "background" : "#ef5b2b",
            "button" : {
                "fontSize" : 20,
                "color" : "#fff",
                "padding-left" : "5px",
                "hover" : {
                    "borderBottom" : "2px solid #fff"
                }
            }
        },
        "button" : {
            "footer" : {
                "add" : {
                    "bottom" : 50,
                    "background" : "transparent",
                    "color" : "white"
                }
            }
        },
        "color" : {
            "green" : "#93C020",
            "blue" : "#3595a8",
            "dark" : "#161315"
        }
    },
    "app" : {
        "#search" : {
            "subdomainName" : "Les projets",
            "icon" : "search",
            "filterObj":"costum.views.custom.tiersLieux.filters",
            "useFilter" : true,
            "useHeader" : false,
            "showMap":true,
            "filters" : {
                "types" : [ 
                    "organizations"
                ]
            },
            "searchObject" : {
                "indexStep" : "0"
            },
            "menuRight" : false
        },
        "#dashboard" : {
            "hash" : "#tiersLieux.dashboard",
            "icon" : "binoculars",
            "module":"costum",
            "header":"costum.views.custom.tiersLieux.filters",
            "urlExtra" : "/url/costum.views.custom.tiersLieux.dashboard",
            "useHeader" : true,
            "useFilter" : false,
            "useFooter" : true,
            "dropdownResult":true,
            "subdomainName" : "L'observatoire des Tiers-lieux",
            "placeholderMainSearch" : "what are you looking for ?",
            "useMapBtn":false
        }
    },
    "map" : {
        "menuRight": false,
         "defaultPos" : [
            46.7342232, 
            2.74686000           
        ],
        "activePreview" : true
    },
    "filters" : {
        "searchTypeGS" : [ 
            "organizations"
        ],
        "sourceKey" : true

    }
}