<?xml version="1.0" encoding="utf-8"?>
<!-- Generator: Adobe Illustrator 24.0.3, SVG Export Plug-In . SVG Version: 6.00 Build 0)  -->
<svg version="1.1" id="Calque_1" xmlns="http://www.w3.org/2000/svg" xmlns:xlink="http://www.w3.org/1999/xlink" x="0px" y="0px"
	 viewBox="0 0 55 53" style="enable-background:new 0 0 55 53;" xml:space="preserve">
<style type="text/css">
	.st0{fill:#FFFFFF;}
</style>
<g>
	<g>
		<path class="st0" d="M21.76,29.27c0-0.46-0.41-0.87-0.87-0.87h-3c-0.46,0-0.87,0.41-0.87,0.87v3c0,0.46,0.41,0.87,0.87,0.87h3
			c0.46,0,0.87-0.41,0.87-0.87V29.27L21.76,29.27z"/>
		<path class="st0" d="M29.29,29.27c0-0.46-0.41-0.87-0.87-0.87h-3c-0.46,0-0.87,0.41-0.87,0.87v3c0,0.46,0.41,0.87,0.87,0.87h3
			c0.46,0,0.87-0.41,0.87-0.87V29.27z"/>
		<path class="st0" d="M36.78,29.27c0-0.46-0.41-0.87-0.87-0.87h-3c-0.46,0-0.87,0.41-0.87,0.87v3c0,0.46,0.41,0.87,0.87,0.87h3
			c0.46,0,0.87-0.41,0.87-0.87V29.27z"/>
		<path class="st0" d="M21.76,36.76c0-0.46-0.41-0.87-0.87-0.87h-3c-0.46,0-0.87,0.41-0.87,0.87v3c0,0.46,0.41,0.87,0.87,0.87h3
			c0.46,0,0.87-0.41,0.87-0.87V36.76L21.76,36.76z"/>
		<path class="st0" d="M29.29,36.76c0-0.46-0.41-0.87-0.87-0.87h-3c-0.46,0-0.87,0.41-0.87,0.87v3c0,0.46,0.41,0.87,0.87,0.87h3
			c0.46,0,0.87-0.41,0.87-0.87V36.76z"/>
		<path class="st0" d="M36.78,36.76c0-0.46-0.41-0.87-0.87-0.87h-3c-0.46,0-0.87,0.41-0.87,0.87v3c0,0.46,0.41,0.87,0.87,0.87h3
			c0.46,0,0.87-0.41,0.87-0.87V36.76L36.78,36.76z"/>
		<path class="st0" d="M42.13,12.62v4.58c0,2.09-1.68,3.72-3.77,3.72h-2.34c-2.09,0-3.77-1.68-3.77-3.72v-4.58H21.6v4.58
			c0,2.09-1.68,3.72-3.77,3.72h-2.34c-2.09,0-3.77-1.68-3.77-3.72v-4.58c-1.83,0.05-3.31,1.53-3.31,3.41v26.84
			c0,1.88,1.53,3.41,3.41,3.41h30.25c1.88,0,3.41-1.53,3.41-3.41V15.98C45.44,14.15,43.96,12.67,42.13,12.62z M41.06,41.19
			c0,0.81-0.66,1.48-1.48,1.48H14.17c-0.81,0-1.48-0.66-1.48-1.48V27.34c0-0.81,0.66-1.48,1.48-1.48h25.36
			c0.81,0,1.48,0.66,1.48,1.48L41.06,41.19L41.06,41.19z"/>
		<path class="st0" d="M15.44,18.48h2.34c0.71,0,1.27-0.56,1.27-1.27V9.67c0-0.71-0.56-1.27-1.27-1.27h-2.34
			c-0.71,0-1.27,0.56-1.27,1.27v7.54C14.17,17.86,14.73,18.48,15.44,18.48z"/>
		<path class="st0" d="M36.02,18.48h2.34c0.71,0,1.27-0.56,1.27-1.27V9.67c0-0.71-0.56-1.27-1.27-1.27h-2.34
			c-0.71,0-1.27,0.56-1.27,1.27v7.54C34.69,17.86,35.3,18.48,36.02,18.48z"/>
	</g>
</g>
</svg>
