<?xml version="1.0" encoding="utf-8"?>
<!-- Generator: Adobe Illustrator 24.0.3, SVG Export Plug-In . SVG Version: 6.00 Build 0)  -->
<svg version="1.1" id="Calque_1" xmlns="http://www.w3.org/2000/svg" xmlns:xlink="http://www.w3.org/1999/xlink" x="0px" y="0px"
	 viewBox="0 0 49 41" style="enable-background:new 0 0 49 41;" xml:space="preserve">
<style type="text/css">
	.st0{fill:#8CC63F;}
</style>
<g>
	<path class="st0" d="M112.58,151.99v6.81c0,0.47,0.38,0.85,0.85,0.85h2.55v-8.52h-2.55C112.96,151.14,112.58,151.52,112.58,151.99z
		"/>
	<path class="st0" d="M124.64,151.99h-2.52c-0.22,0-0.33-0.15-0.37-0.21c-0.04-0.06-0.11-0.23-0.01-0.42l0.89-1.6
		c0.19-0.35,0.21-0.76,0.06-1.13c-0.16-0.37-0.47-0.63-0.86-0.73l-0.63-0.16c-0.15-0.04-0.31,0.01-0.42,0.13l-3.4,3.77
		c-0.35,0.39-0.55,0.9-0.55,1.42v4.46c0,1.17,0.96,2.13,2.13,2.13l4.24,0c0.96,0,1.8-0.64,2.05-1.57l0.91-4.17
		c0.03-0.12,0.04-0.23,0.04-0.35C126.21,152.7,125.5,151.99,124.64,151.99L124.64,151.99z"/>
</g>
<g>
	<path class="st0" d="M43.94,9.65H41.4c-0.7,0-1.27-0.57-1.27-1.27V5.82c0-0.7-0.57-1.27-1.27-1.27H5.76c-0.7,0-1.27,0.57-1.27,1.27
		v26.73c0,0,0,5.09,5.09,5.09H41.4c0,0,3.82-0.08,3.82-5.09V10.92C45.22,10.22,44.65,9.65,43.94,9.65z M36.44,35.1H9.58
		c-2.55,0-2.55-2.55-2.55-2.55V8.37c0-0.7,0.57-1.27,1.27-1.27h28.01c0.7,0,1.27,0.57,1.27,1.27v24.18c0,0.36,0.04,0.68,0.1,0.97
		C37.84,34.33,37.26,35.1,36.44,35.1z"/>
	<path class="st0" d="M33.76,12.19H10.85c-0.7,0-1.27,0.57-1.27,1.27s0.57,1.27,1.27,1.27h22.91c0.7,0,1.27-0.57,1.27-1.27
		S34.46,12.19,33.76,12.19z"/>
	<path class="st0" d="M31.22,27.46h-6.36c-0.7,0-1.27,0.57-1.27,1.27c0,0.7,0.57,1.27,1.27,1.27h6.36c0.7,0,1.27-0.57,1.27-1.27
		C32.49,28.03,31.92,27.46,31.22,27.46z"/>
	<path class="st0" d="M33.76,22.37h-8.91c-0.7,0-1.27,0.57-1.27,1.27c0,0.7,0.57,1.27,1.27,1.27h8.91c0.7,0,1.27-0.57,1.27-1.27
		C35.03,22.94,34.46,22.37,33.76,22.37z"/>
	<path class="st0" d="M33.76,17.28h-8.91c-0.7,0-1.27,0.57-1.27,1.27s0.57,1.27,1.27,1.27h8.91c0.7,0,1.27-0.57,1.27-1.27
		C35.04,17.85,34.46,17.28,33.76,17.28z"/>
	<path class="st0" d="M19.76,17.28h-8.91c-0.7,0-1.27,0.57-1.27,1.27v10.18c0,0.7,0.57,1.27,1.27,1.27h8.91
		c0.7,0,1.27-0.57,1.27-1.27V18.56C21.03,17.85,20.47,17.28,19.76,17.28z"/>
</g>
</svg>
