
{
    "_id" : ObjectId("6011687ebaabc50a628b456b"),
    "type" : "blockCms",
    "path" : "tpls.blockCms.header.blockarianeheader",
    "name" : "bloc header",
    "collection" : "cms",
    "updated" : NumberLong(1611755777),
    "creator" : "5f09a237c629700c008b4570",
    "created" : NumberLong(1611753625),
    "description" : ""
}