{
    "_id" : ObjectId("60116053baabc5344f8b4597"),
    "type" : "blockCms",
    "path" : "tpls.blockCms.textImg.blocimgroundright",
    "name" : "bloc image arrondi à droite",
    "collection" : "cms",
    "updated" : NumberLong(1611752559),
    "creator" : "5f09a237c629700c008b4570",
    "created" : NumberLong(1611751524),
    "description" : ""
}