{
    "_id" : ObjectId("5f636113c6297014008b4570"),
    "type" : "blockCms",
    "path" : "tpls.blockCms.community.communityblock",
    "name" : "block communauté",
    "developpeur" : "true",
    "img" : "",
    "description" : "",
    "parent" : "",
    "created" : NumberLong(1600348435),
    "creator" : "5f09a237c629700c008b4570"
}