{
    "_id" : ObjectId("5fb4ebdac6297010008b4569"),
    "type" : "blockCms",
    "path" : "tpls.blockCms.text.text3Columns",
    "name" : "texte à 3 colonnes ",   
    "description" : "",
    "created" : NumberLong(1605692378),
    "creator" : "5f09a237c629700c008b4570",
    "updated" : NumberLong(1611811633)
}